/Users/hermanjohannes/Downloads/compiled/hermanjohannes/accelbyte/src/main/java/com/hj/demo/service/Writer.java
/Users/hermanjohannes/Downloads/compiled/hermanjohannes/accelbyte/src/main/java/com/hj/demo/Main.java
/Users/hermanjohannes/Downloads/compiled/hermanjohannes/accelbyte/src/main/java/com/hj/demo/service/DateParser.java
/Users/hermanjohannes/Downloads/compiled/hermanjohannes/accelbyte/src/main/java/com/hj/demo/service/Reader.java
